0 APU SE VA DE LOS SIMPSON
3 APU SE QUEDA
1 APU SE QUEDA
0 APU SE VA DE LOS SIMPSON
1 APU SE QUEDA
3 APU SE VA DE LOS SIMPSON
14 APU SE VA DE LOS SIMPSON
173 APU SE QUEDA
5 APU SE QUEDA
0 APU SE VA DE LOS SIMPSON
1 APU SE VA DE LOS SIMPSON
2 APU SE QUEDA
2 APU SE VA DE LOS SIMPSON
